<svg width="14" height="11" viewBox="0 0 14 11" fill="none" xmlns="http://www.w3.org/2000/svg">
<path id="Vector 2" d="M1 3.75L6 8.75L13 1.25" stroke="#F6FDFF" stroke-width="2" stroke-linecap="round"/>
</svg>
